{
  "type": "service_account",
  "project_id": "testexcel-cc071",
  "private_key_id": "51c20f277ef0406471540009b67b9ebf677dff31",
  "private_key": "-----BEGIN PRIVATE KEY-----\nMIIEvwIBADANBgkqhkiG9w0BAQEFAASCBKkwggSlAgEAAoIBAQCaQ/ztQ/8uzr8d\nnthABHIjzvKqlHHc0vCFq0b9YM2KjTxPZfRZ8VDOFwTtdJtW/KXyBrJRHhU19NNe\n4R80SVu+dZ1swJ9MTumEh1bKl12gGYRv9EbfrPrg/NXqNsyfImOD2HWpUtqbmhz5\n0WjJzCUY+VIUvAhVROyGs7Lpjf/m11ROGgH9VAOXu9TvqbHpIOHnhRolRuso34z0\noqvSkDf2xboGoHZa6q/lJx438nGHlLJpdr5OyuUar3fFqkGjSz2GNDoxooG250kY\nw700cSMO6/JI/9J9Phbh/S01inICK3pmPJFLNpMYpDCI+HvHiV6+z+r2xvhctwsa\nd/KL6klvAgMBAAECggEAJIy6Nt727XinmFWDx/slre1A2oCMT7UcrpbrnWnbmRmo\ncelmkQ7XRdT3YmlPyrbWfHbwtb5qaRvGHsM42PMOjRwhvdwPgg1qT2+fdSWS1bVm\nBv558lHyKO9OoYz1QzjrGhhlnEYYrGhBuEDQ0osPORENTQNV+Bn57lpSJ/rwaBk7\nPKfHPYkBIsX8eM1831iWZMEgip6TE0PJPESERyNOyE0Je6NWmov9ZZ0a3Gb7efDq\n4e0ayA0iEUgH2Xla7JUk7izLIp2VOyJDHW+zzzHTTIJO36HUdJd7WhhgY+C+U4xR\nxMyyg0dDsuFJTUOfNgEbKlMZfCA9VZj+PIpAmLH4xQKBgQDSCFFDez3jgvsl4IsU\nHY/cIhSI2RC7RlQyd5YSbkySRnWQC3lM39RKbXIxzLcChKOZ4dW17jS3ayWEOOEM\nV22oq1lacUq6cG3eNKWjMtrN9bjJBxT3yL6RsKNpswHQ98mJbNhweNuqMGtBkrer\nyndzzPua2SVuILZvNzK+pmg2jQKBgQC8Byqvqi/NAeGlMfUAKJxgyAtXbLjNFwhZ\nRpr6p0gwz7tbY6yrNa820xO0/WhL4zCW9kXOsgRIu9x3TgRdYp3G65f9aajWtBRE\nNagNLl0GLbD3Wko2hZPXXs83aqzMQ6wNhwnoKB2DVlrgfm2EXHU1Ca52VB/ruVam\nAH5V83aO6wKBgQCulZNXEH5lO18gIQH6eog2Z23CQwyRXuhl+tmYAG9Nt5vJXIA7\n0mJYa5lco9oMEc0cAIjwbU0MmdfZjJ4k8BeK+MORVlLTntj0t7ZnbcJLKVGsaGKZ\nhRhDahyro8yCszWnMf7Hnu6ZDR5ap2ZdOjMI4v7RvGZMoIyE7dEUgKZnkQKBgQCm\nWXzVby7dI+X7HciQ/FzlbvZBwWl54P+85C9mxKqkrJQolXWE/3jlezb7MBqe0QAC\n/xzhcjNCGhpB3t8Ts5S9EWAljd4XHbi0Y/gquTMJrVDcdaAkvmb+6t1PPOxlxxUn\n3qnQH/WEZdj+tju0F4yGgOs9us2G4jEbqmIbLstcQwKBgQC4IuYjDJWZ027g16nd\n4M9oTeOEdw/Zr0u3fMCJnU/H2K3d1mPa7n4E6cJrSYOI16NI30yqai9YyBJ1G8gi\nFYwOgULO9IzdoSOovSwI4erX2SPYWRs4FZ01zRlp3DpG2ZfDzZNTivISHmo3uD8a\nczilhYN2yFggYlZHHSoh2JUnGA==\n-----END PRIVATE KEY-----\n",
  "client_email": "firebase-adminsdk-q8wmn@testexcel-cc071.iam.gserviceaccount.com",
  "client_id": "100865582963142558815",
  "auth_uri": "https://accounts.google.com/o/oauth2/auth",
  "token_uri": "https://oauth2.googleapis.com/token",
  "auth_provider_x509_cert_url": "https://www.googleapis.com/oauth2/v1/certs",
  "client_x509_cert_url": "https://www.googleapis.com/robot/v1/metadata/x509/firebase-adminsdk-q8wmn%40testexcel-cc071.iam.gserviceaccount.com"
}
